{
    "cinemas": [
        {
            "id": 13577,
            "mark": 0,
            "nm": "上海科技影城",
            "sellPrice": "3.1",
            "addr": "黄浦区南昌路59号科学会堂思南楼3楼（思南路）",
            "distance": "1268.2km",
            "tag": {
                "allowRefund": 1,
                "buyout": 0,
                "cityCardTag": 0,
                "deal": 0,
                "endorse": 1,
                "giftTag": "",
                "hallType": [],
                "hallTypeVOList": [],
                "sell": 1,
                "snack": 1,
                "vipTag": "折扣卡"
            },
            "promotion": {
                "cardPromotionTag": "开卡特惠，首单1张最高立减4元",
                "couponPromotionTag": "",
                "merchantActivityTag": "",
                "packShowActivityTag": "",
                "platformActivityTag": "",
                "starActivityTag": ""
            },
            "showTimes": ""
        },
        {
            "id": 57,
            "mark": 0,
            "nm": "永乐国际影城（青松路1店）",
            "sellPrice": "4",
            "addr": "青浦区青松路37号（近成泰百货）",
            "distance": "1239.9km",
            "tag": {
                "allowRefund": 1,
                "buyout": 0,
                "cityCardTag": 0,
                "deal": 0,
                "endorse": 1,
                "giftTag": "",
                "hallType": [
                    "4K厅"
                ],
                "hallTypeVOList": [
                    {
                        "name": "4K厅",
                        "url": ""
                    }
                ],
                "sell": 1,
                "snack": 0,
                "vipTag": "折扣卡"
            },
            "promotion": {
                "cardPromotionTag": "开卡特惠，首单1张最高立减4元",
                "couponPromotionTag": "",
                "merchantActivityTag": "",
                "packShowActivityTag": "",
                "platformActivityTag": "",
                "starActivityTag": ""
            },
            "showTimes": ""
        },
        {
            "id": 13812,
            "mark": 0,
            "nm": "永乐国际影城（青湖东路2店）",
            "sellPrice": "4",
            "addr": "青浦区青湖东路900号3楼",
            "distance": "1241.7km",
            "tag": {
                "allowRefund": 1,
                "buyout": 0,
                "cityCardTag": 0,
                "deal": 0,
                "endorse": 1,
                "giftTag": "",
                "hallType": [
                    "杜比全景声厅",
                    "4K厅"
                ],
                "hallTypeVOList": [
                    {
                        "name": "杜比全景声厅",
                        "url": ""
                    },
                    {
                        "name": "4K厅",
                        "url": ""
                    }
                ],
                "sell": 1,
                "snack": 1,
                "vipTag": "折扣卡"
            },
            "promotion": {
                "cardPromotionTag": "开卡特惠，首单1张最高立减4元",
                "couponPromotionTag": "",
                "merchantActivityTag": "",
                "packShowActivityTag": "",
                "platformActivityTag": "",
                "starActivityTag": ""
            },
            "showTimes": ""
        },
        {
            "id": 24248,
            "mark": 0,
            "nm": "SFC上影国际影城青浦店（富绅家乐福）",
            "sellPrice": "5",
            "addr": "青浦区公园东路1289弄富绅商业中心广场二楼203-211",
            "distance": "1241.6km",
            "tag": {
                "allowRefund": 1,
                "buyout": 0,
                "cityCardTag": 0,
                "deal": 0,
                "endorse": 1,
                "giftTag": "",
                "hallType": [],
                "hallTypeVOList": [],
                "sell": 1,
                "snack": 1,
                "vipTag": "折扣卡"
            },
            "promotion": {
                "cardPromotionTag": "开卡特惠，首单2张最高立减2元",
                "couponPromotionTag": "",
                "merchantActivityTag": "",
                "packShowActivityTag": "",
                "platformActivityTag": "",
                "starActivityTag": ""
            },
            "showTimes": ""
        },
        {
            "id": 10947,
            "mark": 0,
            "nm": "大光明新国际影城（青浦吾悦店）",
            "sellPrice": "13",
            "addr": "青浦区淀山湖大道漕盈路218号吾悦广场内5楼",
            "distance": "1238.1km",
            "tag": {
                "allowRefund": 1,
                "buyout": 0,
                "cityCardTag": 0,
                "deal": 0,
                "endorse": 1,
                "giftTag": "",
                "hallType": [
                    "杜比全景声厅"
                ],
                "hallTypeVOList": [
                    {
                        "name": "杜比全景声厅",
                        "url": ""
                    }
                ],
                "sell": 1,
                "snack": 1,
                "vipTag": "折扣卡"
            },
            "promotion": {
                "cardPromotionTag": "开卡特惠，首单1张最高立减2元",
                "couponPromotionTag": "",
                "merchantActivityTag": "",
                "packShowActivityTag": "",
                "platformActivityTag": "",
                "starActivityTag": ""
            },
            "showTimes": ""
        },
        {
            "id": 25631,
            "mark": 0,
            "nm": "苏宁尊享影城（青浦店）",
            "sellPrice": "13",
            "addr": "青浦区公园路458号凯特利广场4楼",
            "distance": "1240km",
            "tag": {
                "allowRefund": 1,
                "buyout": 0,
                "cityCardTag": 0,
                "deal": 0,
                "endorse": 1,
                "giftTag": "",
                "hallType": [],
                "hallTypeVOList": [],
                "sell": 1,
                "snack": 1,
                "vipTag": "折扣卡"
            },
            "promotion": {
                "cardPromotionTag": "开卡特惠，首单最高立减30元",
                "couponPromotionTag": "",
                "merchantActivityTag": "",
                "packShowActivityTag": "",
                "platformActivityTag": "",
                "starActivityTag": ""
            },
            "showTimes": ""
        },
        {
            "id": 27492,
            "mark": 0,
            "nm": "汽车城瑞立影院",
            "sellPrice": "13",
            "addr": "嘉定区安亭镇博园路6990弄52号201室、202室、203室",
            "distance": "1255.1km",
            "tag": {
                "allowRefund": 0,
                "buyout": 0,
                "cityCardTag": 0,
                "deal": 0,
                "endorse": 1,
                "giftTag": "",
                "hallType": [],
                "hallTypeVOList": [],
                "sell": 1,
                "snack": 0,
                "vipTag": "折扣卡"
            },
            "promotion": {
                "cardPromotionTag": "开卡特惠，首单1张最高立减4元",
                "couponPromotionTag": "",
                "merchantActivityTag": "",
                "packShowActivityTag": "",
                "platformActivityTag": "",
                "starActivityTag": ""
            },
            "showTimes": ""
        },
        {
            "id": 17199,
            "mark": 0,
            "nm": "CMC大光明影城（莲花店）",
            "sellPrice": "13",
            "addr": "闵行区沪闵路7866号莲花国际广场B1层（地铁一号线莲花路站对面）",
            "distance": "1257.2km",
            "tag": {
                "allowRefund": 0,
                "buyout": 0,
                "cityCardTag": 0,
                "deal": 0,
                "endorse": 1,
                "giftTag": "",
                "hallType": [
                    "DTS:X 临境音厅"
                ],
                "hallTypeVOList": [
                    {
                        "name": "DTS:X 临境音厅",
                        "url": ""
                    }
                ],
                "sell": 1,
                "snack": 0,
                "vipTag": "折扣卡"
            },
            "promotion": {
                "cardPromotionTag": "",
                "couponPromotionTag": "",
                "merchantActivityTag": "",
                "packShowActivityTag": "",
                "platformActivityTag": "",
                "starActivityTag": ""
            },
            "showTimes": ""
        },
        {
            "id": 25611,
            "mark": 0,
            "nm": "唐德国际影城（红土店）",
            "sellPrice": "13",
            "addr": "嘉定区叶城路1500弄6号2-3层",
            "distance": "1265.3km",
            "tag": {
                "allowRefund": 0,
                "buyout": 0,
                "cityCardTag": 0,
                "deal": 0,
                "endorse": 1,
                "giftTag": "",
                "hallType": [
                    "杜比全景声厅",
                    "巨幕厅"
                ],
                "hallTypeVOList": [
                    {
                        "name": "杜比全景声厅",
                        "url": ""
                    },
                    {
                        "name": "巨幕厅",
                        "url": ""
                    }
                ],
                "sell": 1,
                "snack": 1,
                "vipTag": "折扣卡"
            },
            "promotion": {
                "cardPromotionTag": "开卡特惠，首单1张最高立减2元",
                "couponPromotionTag": "",
                "merchantActivityTag": "",
                "packShowActivityTag": "",
                "platformActivityTag": "",
                "starActivityTag": ""
            },
            "showTimes": ""
        },
        {
            "id": 234,
            "mark": 0,
            "nm": "和平影都",
            "sellPrice": "13",
            "addr": "黄浦区西藏中路290号（近汉口路）",
            "distance": "1270km",
            "tag": {
                "allowRefund": 1,
                "buyout": 0,
                "cityCardTag": 0,
                "deal": 0,
                "endorse": 1,
                "giftTag": "",
                "hallType": [
                    "IMAX厅"
                ],
                "hallTypeVOList": [
                    {
                        "name": "IMAX厅",
                        "url": ""
                    }
                ],
                "sell": 1,
                "snack": 0,
                "vipTag": "折扣卡"
            },
            "promotion": {
                "cardPromotionTag": "开卡特惠，首单1张最高立减4元",
                "couponPromotionTag": "",
                "merchantActivityTag": "",
                "packShowActivityTag": "",
                "platformActivityTag": "",
                "starActivityTag": ""
            },
            "showTimes": ""
        }
    ],
    "ct_pois": [
        {
            "ct_poi": "936879945111165696_a13577_c0",
            "poiid": 50813824
        },
        {
            "ct_poi": "936879945111165696_a57_c1",
            "poiid": 1436319
        },
        {
            "ct_poi": "936879945111165696_a13812_c2",
            "poiid": 72676818
        },
        {
            "ct_poi": "936879945111165696_a24248_c3",
            "poiid": 163857203
        },
        {
            "ct_poi": "936879945111165696_a10947_c4",
            "poiid": 40254849
        },
        {
            "ct_poi": "936879945111165696_a25631_c5",
            "poiid": 181454951
        },
        {
            "ct_poi": "936879945111165696_a27492_c6",
            "poiid": 195975965
        },
        {
            "ct_poi": "936879945111165696_a17199_c7",
            "poiid": 152579475
        },
        {
            "ct_poi": "936879945111165696_a25611_c8",
            "poiid": 180687751
        },
        {
            "ct_poi": "936879945111165696_a234_c9",
            "poiid": 1573102
        }
    ],
    "paging": {
        "hasMore": true,
        "limit": 10,
        "offset": 0,
        "total": 387
    }
}